{
  "images": [
    {
      "orientation": "portrait",
      "extent": "full-screen",
      "minimum-system-version": "7.0",
      "scale": "2x",
      "size": "0x0",
      "idiom": "iphone",
      "filename": "splashscreen640x960.png"
    },
    {
      "orientation": "portrait",
      "extent": "full-screen",
      "minimum-system-version": "7.0",
      "subtype": "retina4",
      "scale": "2x",
      "size": "0x0",
      "idiom": "iphone",
      "filename": "splashscreen640x1136.png"
    },
    {
      "orientation": "portrait",
      "extent": "full-screen",
      "minimum-system-version": "7.0",
      "scale": "1x",
      "size": "0x0",
      "idiom": "ipad",
      "filename": "splashscreen768x1024.png"
    },
    {
      "orientation": "landscape",
      "extent": "full-screen",
      "minimum-system-version": "7.0",
      "scale": "1x",
      "size": "0x0",
      "idiom": "ipad",
      "filename": "splashscreen1024x768.png"
    },
    {
      "orientation": "portrait",
      "extent": "full-screen",
      "minimum-system-version": "7.0",
      "scale": "2x",
      "size": "0x0",
      "idiom": "ipad",
      "filename": "splashscreen1536x2048.png"
    },
    {
      "orientation": "landscape",
      "extent": "full-screen",
      "minimum-system-version": "7.0",
      "scale": "2x",
      "size": "0x0",
      "idiom": "ipad",
      "filename": "splashscreen2048x1536.png"
    }
  ],
  "properties": {},
  "info": {
    "version": 1,
    "author": ""
  }
}